…
  filter(Country == "Indonesia") %>%
  anti_join(UN_stop_words, by = c("word_stem" = "words")) %>%
  mutate(Year = cut_interval(Year, length = 5)) %>%
  group_by(Year) %>%
  count(word_stem) %>%
  group_by(Year) %>%
  top_n(n = 5) %>%
  arrange(desc(n), .by_group = TRUE) %>%
  ungroup() %>%
  mutate(Year = as.factor(Year),
           name = reorder_within(word_stem, n, Year))
indonesia_count_word_year
```

    ## # A tibble: 51 x 4
    ##    Year        word_stem     n name                  
    ##    <fct>       <chr>     <int> <fct>                 
    ##  1 [1970,1975] deleg        87 deleg___[1970,1975]   
    ##  2 [1970,1975] econom       84 econom___[1970,1975]  
    ##  3 [1970,1975] effort       77 effort___[1970,1975]  
    ##  4 [1970,1975] assembli     64 assembli___[1970,1975]
    ##  5 [1970,1975] continu      62 continu___[1970,1975] 
    ##  6 (1975,1980] econom      100 econom___(1975,1980]  
    ##  7 (1975,1980] session      77 session___(1975,1980] 
    ##  8 (1975,1980] effort       64 effort___(1975,1980]  
    ##  9 (1975,1980] deleg        62 deleg___(1975,1980]   
    ## 10 (1975,1980] east         62 east___(1975,1980]    
    ## # … with 41 more rows
…
